{
    "_metadata": {
        "page": "1 / 2",
        "page_count": 20,
        "start_index": 1,
        "end_index": 20,
        "total_count": 39,
        "current_page": "1",
        "next_page": "2"
    },
    "records": [
        {
            "vlr_latitude": "-23.1836521625512",
            "vlr_longitude": "-45.7969379425036",
            "cod_munic": "354990",
            "cod_cnes": "9466",
            "nom_estab": "UBS PARAISO DO SOL",
            "dsc_endereco": "RUA DR JOAO GOMES BATISTA NETO",
            "dsc_bairro": "PARAISO DO SOL",
            "dsc_cidade": "São José dos Campos",
            "dsc_telefone": "1239071472",
            "dsc_estrut_fisic_ambiencia": "Desempenho muito acima da média",
            "dsc_adap_defic_fisic_idosos": "Desempenho acima da média",
            "dsc_equipamentos": "Desempenho mediano ou  um pouco abaixo da média",
            "dsc_medicamentos": "Desempenho acima da média",
            "co_cep": "12225170"
        },
        {
            "vlr_latitude": "-23.2498490810388",
            "vlr_longitude": "-45.9032177925097",
            "cod_munic": "354990",
            "cod_cnes": "9091",
            "nom_estab": "UBS JARDIM MORUMBI",
            "dsc_endereco": "AVENIDA ELISIO GALDINO SOBRINHO",
            "dsc_bairro": "JARDIM MORUMBI",
            "dsc_cidade": "São José dos Campos",
            "dsc_telefone": "1239371858",
            "dsc_estrut_fisic_ambiencia": "Desempenho acima da média",
            "dsc_adap_defic_fisic_idosos": "Desempenho acima da média",
            "dsc_equipamentos": "Desempenho mediano ou  um pouco abaixo da média",
            "dsc_medicamentos": "Desempenho acima da média",
            "co_cep": "12236740"
        },
        {
            "vlr_latitude": "-23.1817209720605",
            "vlr_longitude": "-45.8841204643236",
            "cod_munic": "354990",
            "cod_cnes": "9326",
            "nom_estab": "UBS CENTRO I",
            "dsc_endereco": "RUA CORONEL JOSE MONTEIRO",
            "dsc_bairro": "CENTRO",
            "dsc_cidade": "São José dos Campos",
            "dsc_telefone": "123923159",
            "dsc_estrut_fisic_ambiencia": "Desempenho muito acima da média",
            "dsc_adap_defic_fisic_idosos": "Desempenho acima da média",
            "dsc_equipamentos": "Desempenho mediano ou  um pouco abaixo da média",
            "dsc_medicamentos": "Desempenho acima da média",
            "co_cep": "12220140"
        },
        {
            "vlr_latitude": "-23.2591724395745",
            "vlr_longitude": "-45.8880686759935",
            "cod_munic": "354990",
            "cod_cnes": "9415",
            "nom_estab": "UBS BOSQUE DOS EUCALIPTOS",
            "dsc_endereco": "RUA PIRAJU",
            "dsc_bairro": "BQ DOS EUCALIPTOS",
            "dsc_cidade": "São José dos Campos",
            "dsc_telefone": "1239361938",
            "dsc_estrut_fisic_ambiencia": "Desempenho mediano ou  um pouco abaixo da média",
            "dsc_adap_defic_fisic_idosos": "Desempenho acima da média",
            "dsc_equipamentos": "Desempenho mediano ou  um pouco abaixo da média",
            "dsc_medicamentos": "Desempenho acima da média",
            "co_cep": "12233640"
        },
        {
            "vlr_latitude": "-23.2146048545831",
            "vlr_longitude": "-45.8073449134813",
            "cod_munic": "354990",
            "cod_cnes": "25917",
            "nom_estab": "UBS CAMPOS DE SAO JOSE",
            "dsc_endereco": "RUA DALILA MARQUES MIGUEZ",
            "dsc_bairro": "CAMPOS DE SAO JOSE",
            "dsc_cidade": "São José dos Campos",
            "dsc_telefone": "1239023446",
            "dsc_estrut_fisic_ambiencia": "Desempenho muito acima da média",
            "dsc_adap_defic_fisic_idosos": "Desempenho acima da média",
            "dsc_equipamentos": "Desempenho mediano ou  um pouco abaixo da média",
            "dsc_medicamentos": "Desempenho acima da média",
            "co_cep": "12226390"
        },
        {
            "vlr_latitude": "-23.255299329757",
            "vlr_longitude": "-45.9234738349901",
            "cod_munic": "354990",
            "cod_cnes": "9075",
            "nom_estab": "UBS CHACARAS REUNIDAS",
            "dsc_endereco": "PRACA CARIRI",
            "dsc_bairro": "CHACARAS REUNIDAS",
            "dsc_cidade": "São José dos Campos",
            "dsc_telefone": "1239311747",
            "dsc_estrut_fisic_ambiencia": "Desempenho muito acima da média",
            "dsc_adap_defic_fisic_idosos": "Desempenho acima da média",
            "dsc_equipamentos": "Desempenho mediano ou  um pouco abaixo da média",
            "dsc_medicamentos": "Desempenho acima da média",
            "co_cep": "12238300"
        },
        {
            "vlr_latitude": "-23.2806730270379",
            "vlr_longitude": "-45.8954286575304",
            "cod_munic": "354990",
            "cod_cnes": "9032",
            "nom_estab": "UBS COLONIAL",
            "dsc_endereco": "RUA JOSE RIBEIRO BASTOS",
            "dsc_bairro": "COLONIAL",
            "dsc_cidade": "São José dos Campos",
            "dsc_telefone": "1239666252",
            "dsc_estrut_fisic_ambiencia": "Desempenho muito acima da média",
            "dsc_adap_defic_fisic_idosos": "Desempenho acima da média",
            "dsc_equipamentos": "Desempenho mediano ou  um pouco abaixo da média",
            "dsc_medicamentos": "Desempenho acima da média",
            "co_cep": "12234730"
        },
        {
            "vlr_latitude": "-23.1765496730798",
            "vlr_longitude": "-45.822236537932",
            "cod_munic": "354990",
            "cod_cnes": "9105",
            "nom_estab": "UBS VISTA VERDE",
            "dsc_endereco": "RUA BRASILIA",
            "dsc_bairro": "VISTA VERDE",
            "dsc_cidade": "São José dos Campos",
            "dsc_telefone": "1239122326",
            "dsc_estrut_fisic_ambiencia": "Desempenho muito acima da média",
            "dsc_adap_defic_fisic_idosos": "Desempenho acima da média",
            "dsc_equipamentos": "Desempenho mediano ou  um pouco abaixo da média",
            "dsc_medicamentos": "Desempenho acima da média",
            "co_cep": "12223640"
        },
        {
            "vlr_latitude": "-23.1795537471764",
            "vlr_longitude": "-45.8121085166918",
            "cod_munic": "354990",
            "cod_cnes": "9261",
            "nom_estab": "UBS JARDIM AMERICANO",
            "dsc_endereco": "RUA JULIA CURSINO",
            "dsc_bairro": "JARDIM AMERICANO",
            "dsc_cidade": "São José dos Campos",
            "dsc_telefone": "1239124043",
            "dsc_estrut_fisic_ambiencia": "Desempenho acima da média",
            "dsc_adap_defic_fisic_idosos": "Desempenho acima da média",
            "dsc_equipamentos": "Desempenho mediano ou  um pouco abaixo da média",
            "dsc_medicamentos": "Desempenho acima da média",
            "co_cep": "12225090"
        },
        {
            "vlr_latitude": "-23.2065153121941",
            "vlr_longitude": "-45.8569765090929",
            "cod_munic": "354990",
            "cod_cnes": "9113",
            "nom_estab": "UBS JARDIM DA GRANJA",
            "dsc_endereco": "RUA URANO",
            "dsc_bairro": "JARDIM DA GRANJA",
            "dsc_cidade": "São José dos Campos",
            "dsc_telefone": "1239414400",
            "dsc_estrut_fisic_ambiencia": "Desempenho muito acima da média",
            "dsc_adap_defic_fisic_idosos": "Desempenho acima da média",
            "dsc_equipamentos": "Desempenho mediano ou  um pouco abaixo da média",
            "dsc_medicamentos": "Desempenho acima da média",
            "co_cep": "12227520"
        },
        {
            "vlr_latitude": "-23.1688892841332",
            "vlr_longitude": "-45.8039760589586",
            "cod_munic": "354990",
            "cod_cnes": "9385",
            "nom_estab": "UBS JARDIM SANTA INES II",
            "dsc_endereco": "RUA DOS CIRURGIOES DENTISTAS",
            "dsc_bairro": "JARDIM SANTA INES II",
            "dsc_cidade": "São José dos Campos",
            "dsc_telefone": "1239291309",
            "dsc_estrut_fisic_ambiencia": "Desempenho acima da média",
            "dsc_adap_defic_fisic_idosos": "Desempenho acima da média",
            "dsc_equipamentos": "Desempenho mediano ou  um pouco abaixo da média",
            "dsc_medicamentos": "Desempenho acima da média",
            "co_cep": "12248515"
        },
        {
            "vlr_latitude": "-23.1858837604516",
            "vlr_longitude": "-45.8711171150194",
            "cod_munic": "354990",
            "cod_cnes": "9148",
            "nom_estab": "UBS JARDIM JUSSARA",
            "dsc_endereco": "PRACA ANA BERLING MACEDO",
            "dsc_bairro": "JD JUSSARA",
            "dsc_cidade": "São José dos Campos",
            "dsc_telefone": "1239412540",
            "dsc_estrut_fisic_ambiencia": "Desempenho acima da média",
            "dsc_adap_defic_fisic_idosos": "Desempenho acima da média",
            "dsc_equipamentos": "Desempenho mediano ou  um pouco abaixo da média",
            "dsc_medicamentos": "Desempenho acima da média",
            "co_cep": "12215530"
        },
        {
            "vlr_latitude": "-23.1376683711999",
            "vlr_longitude": "-45.9102129936205",
            "cod_munic": "354990",
            "cod_cnes": "9237",
            "nom_estab": "UBS VILA PAIVA",
            "dsc_endereco": "RUA JOAO PEDRO DA ROCHA",
            "dsc_bairro": "VILA PAIVA",
            "dsc_cidade": "São José dos Campos",
            "dsc_telefone": "1239213466",
            "dsc_estrut_fisic_ambiencia": "Desempenho muito acima da média",
            "dsc_adap_defic_fisic_idosos": "Desempenho acima da média",
            "dsc_equipamentos": "Desempenho mediano ou  um pouco abaixo da média",
            "dsc_medicamentos": "Desempenho acima da média",
            "co_cep": "12213510"
        },
        {
            "vlr_latitude": "-23.1699621677392",
            "vlr_longitude": "-45.8135676383959",
            "cod_munic": "354990",
            "cod_cnes": "9199",
            "nom_estab": "UBS JARDIM NOVA DETROIT",
            "dsc_endereco": "RUA JOSE PEDRO",
            "dsc_bairro": "JARDIM NOVA DETROIT",
            "dsc_cidade": "São José dos Campos",
            "dsc_telefone": "1239123535",
            "dsc_estrut_fisic_ambiencia": "Desempenho muito acima da média",
            "dsc_adap_defic_fisic_idosos": "Desempenho acima da média",
            "dsc_equipamentos": "Desempenho mediano ou  um pouco abaixo da média",
            "dsc_medicamentos": "Desempenho acima da média",
            "co_cep": "12224370"
        },
        {
            "vlr_latitude": "-23.1530427932733",
            "vlr_longitude": "-45.9015011787401",
            "cod_munic": "354990",
            "cod_cnes": "9407",
            "nom_estab": "UBS ALTO DA PONTE",
            "dsc_endereco": "RUA ANSELMO CARNEVALE",
            "dsc_bairro": "VL N SRA DAS GRACAS",
            "dsc_cidade": "São José dos Campos",
            "dsc_telefone": "1239228295",
            "dsc_estrut_fisic_ambiencia": "Desempenho acima da média",
            "dsc_adap_defic_fisic_idosos": "Desempenho mediano ou  um pouco abaixo da média",
            "dsc_equipamentos": "Desempenho mediano ou  um pouco abaixo da média",
            "dsc_medicamentos": "Desempenho acima da média",
            "co_cep": "12212610"
        },
        {
            "vlr_latitude": "-23.2566189765923",
            "vlr_longitude": "-45.8359050750719",
            "cod_munic": "354990",
            "cod_cnes": "9504",
            "nom_estab": "UBS SAO JUDAS TADEU",
            "dsc_endereco": "AVENIDA SAO NICOLAU",
            "dsc_bairro": "SAO JUDAS TADEU",
            "dsc_cidade": "São José dos Campos",
            "dsc_telefone": "39442404",
            "dsc_estrut_fisic_ambiencia": "Desempenho acima da média",
            "dsc_adap_defic_fisic_idosos": "Desempenho mediano ou  um pouco abaixo da média",
            "dsc_equipamentos": "Desempenho mediano ou  um pouco abaixo da média",
            "dsc_medicamentos": "Desempenho acima da média",
            "co_cep": "12220000"
        },
        {
            "vlr_latitude": "-23.2451713085168",
            "vlr_longitude": "-45.8957934379564",
            "cod_munic": "354990",
            "cod_cnes": "9229",
            "nom_estab": "UBS JARDIM ORIENTE",
            "dsc_endereco": "RUA SENJU OTA",
            "dsc_bairro": "JARDIM ORIENTE",
            "dsc_cidade": "São José dos Campos",
            "dsc_telefone": "1239331435",
            "dsc_estrut_fisic_ambiencia": "Desempenho muito acima da média",
            "dsc_adap_defic_fisic_idosos": "Desempenho acima da média",
            "dsc_equipamentos": "Desempenho mediano ou  um pouco abaixo da média",
            "dsc_medicamentos": "Desempenho acima da média",
            "co_cep": "12236360"
        },
        {
            "vlr_latitude": "-23.1658101081841",
            "vlr_longitude": "-45.9188389778124",
            "cod_munic": "354990",
            "cod_cnes": "3473783",
            "nom_estab": "UBS ALTOS DE SANTANA",
            "dsc_endereco": "AVENIDA ALTO DO RIO DOCE",
            "dsc_bairro": "ALTOS DE SANTANA",
            "dsc_cidade": "São José dos Campos",
            "dsc_telefone": "1239112167",
            "dsc_estrut_fisic_ambiencia": "Desempenho acima da média",
            "dsc_adap_defic_fisic_idosos": "Desempenho acima da média",
            "dsc_equipamentos": "Desempenho mediano ou  um pouco abaixo da média",
            "dsc_medicamentos": "Desempenho acima da média",
            "co_cep": "12214010"
        },
        {
            "vlr_latitude": "-23.1689000129693",
            "vlr_longitude": "-45.7772183418261",
            "cod_munic": "354990",
            "cod_cnes": "3028623",
            "nom_estab": "UBS JARDIM SAO JOSE II",
            "dsc_endereco": "RUA DOUTOR FREDIANO BIANCHI FILHO",
            "dsc_bairro": "JARDIM SAO JOSE II",
            "dsc_cidade": "São José dos Campos",
            "dsc_telefone": "1239126079",
            "dsc_estrut_fisic_ambiencia": "Desempenho muito acima da média",
            "dsc_adap_defic_fisic_idosos": "Desempenho acima da média",
            "dsc_equipamentos": "Desempenho mediano ou  um pouco abaixo da média",
            "dsc_medicamentos": "Desempenho acima da média",
            "co_cep": "12243680"
        },
        {
            "vlr_latitude": "-23.2729160785668",
            "vlr_longitude": "-45.8648943901049",
            "cod_munic": "354990",
            "cod_cnes": "9474",
            "nom_estab": "UBS PARQUE INTERLAGOS",
            "dsc_endereco": "AVENIDA NICANOR REIS",
            "dsc_bairro": "PARQUE INTERLAGOS",
            "dsc_cidade": "São José dos Campos",
            "dsc_telefone": "1239447873",
            "dsc_estrut_fisic_ambiencia": "Desempenho acima da média",
            "dsc_adap_defic_fisic_idosos": "Desempenho acima da média",
            "dsc_equipamentos": "Desempenho mediano ou  um pouco abaixo da média",
            "dsc_medicamentos": "Desempenho acima da média",
            "co_cep": "12229000"
        }
    ]
}