{
    "_metadata": {
        "page": "2 / 2",
        "page_count": 20,
        "start_index": 21,
        "end_index": 40,
        "total_count": 39,
        "current_page": "2",
        "previous_page": "1"
    },
    "records": [
        {
            "vlr_latitude": "-23.2729160785668",
            "vlr_longitude": "-45.8648943901049",
            "cod_munic": "354990",
            "cod_cnes": "9474",
            "nom_estab": "UBS PARQUE INTERLAGOS",
            "dsc_endereco": "AVENIDA NICANOR REIS",
            "dsc_bairro": "PARQUE INTERLAGOS",
            "dsc_cidade": "São José dos Campos",
            "dsc_telefone": "1239447873",
            "dsc_estrut_fisic_ambiencia": "Desempenho acima da média",
            "dsc_adap_defic_fisic_idosos": "Desempenho acima da média",
            "dsc_equipamentos": "Desempenho mediano ou  um pouco abaixo da média",
            "dsc_medicamentos": "Desempenho acima da média",
            "co_cep": "12229000"
        },
        {
            "vlr_latitude": "-23.2378649711602",
            "vlr_longitude": "-45.9086680412279",
            "cod_munic": "354990",
            "cod_cnes": "9393",
            "nom_estab": "UBS PARQUE INDUSTRIAL",
            "dsc_endereco": "RUA GOIANIA",
            "dsc_bairro": "PARQUE INDUSTRIAL",
            "dsc_cidade": "São José dos Campos",
            "dsc_telefone": "1239341355",
            "dsc_estrut_fisic_ambiencia": "Desempenho acima da média",
            "dsc_adap_defic_fisic_idosos": "Desempenho acima da média",
            "dsc_equipamentos": "Desempenho mediano ou  um pouco abaixo da média",
            "dsc_medicamentos": "Desempenho acima da média",
            "co_cep": "12235625"
        },
        {
            "vlr_latitude": "-23.2742464542382",
            "vlr_longitude": "-45.9004282951342",
            "cod_munic": "354990",
            "cod_cnes": "9458",
            "nom_estab": "UBS CAMPO DOS ALEMAES",
            "dsc_endereco": "RUA JOSE ISALTINO SILVA",
            "dsc_bairro": "CAMPO DOS ALEMAES",
            "dsc_cidade": "São José dos Campos",
            "dsc_telefone": "1239032110",
            "dsc_estrut_fisic_ambiencia": "Desempenho acima da média",
            "dsc_adap_defic_fisic_idosos": "Desempenho acima da média",
            "dsc_equipamentos": "Desempenho mediano ou  um pouco abaixo da média",
            "dsc_medicamentos": "Desempenho acima da média",
            "co_cep": "12239020"
        },
        {
            "vlr_latitude": "-23.1770002841943",
            "vlr_longitude": "-45.8792281150805",
            "cod_munic": "354990",
            "cod_cnes": "9210",
            "nom_estab": "UBS VILA MARIA",
            "dsc_endereco": "RUA SAO PEDRO",
            "dsc_bairro": "VILA MARIA",
            "dsc_cidade": "São José dos Campos",
            "dsc_telefone": "1239216209",
            "dsc_estrut_fisic_ambiencia": "Desempenho muito acima da média",
            "dsc_adap_defic_fisic_idosos": "Desempenho acima da média",
            "dsc_equipamentos": "Desempenho mediano ou  um pouco abaixo da média",
            "dsc_medicamentos": "Desempenho acima da média",
            "co_cep": "12209280"
        },
        {
            "vlr_latitude": "-23.2464051246636",
            "vlr_longitude": "-45.9396743774401",
            "cod_munic": "354990",
            "cod_cnes": "9245",
            "nom_estab": "UBS LIMOEIRO",
            "dsc_endereco": "RUA CORIFEU DE AZEVEDO MARQUES",
            "dsc_bairro": "LIMOEIRO",
            "dsc_cidade": "São José dos Campos",
            "dsc_telefone": "1239314735",
            "dsc_estrut_fisic_ambiencia": "Desempenho muito acima da média",
            "dsc_adap_defic_fisic_idosos": "Desempenho acima da média",
            "dsc_equipamentos": "Desempenho mediano ou  um pouco abaixo da média",
            "dsc_medicamentos": "Desempenho acima da média",
            "co_cep": "12241040"
        },
        {
            "vlr_latitude": "-23.1126165390008",
            "vlr_longitude": "-45.9159636497484",
            "cod_munic": "354990",
            "cod_cnes": "9067",
            "nom_estab": "UBS BUQUIRINHA",
            "dsc_endereco": "RUA JOSE MENDONCA DA COSTA",
            "dsc_bairro": "BUQUIRINHA",
            "dsc_cidade": "São José dos Campos",
            "dsc_telefone": "1239481688",
            "dsc_estrut_fisic_ambiencia": "Desempenho muito acima da média",
            "dsc_adap_defic_fisic_idosos": "Desempenho mediano ou  um pouco abaixo da média",
            "dsc_equipamentos": "Desempenho mediano ou  um pouco abaixo da média",
            "dsc_medicamentos": "Desempenho acima da média",
            "co_cep": "12213790"
        },
        {
            "vlr_latitude": "-23.276907205581",
            "vlr_longitude": "-45.8881759643541",
            "cod_munic": "354990",
            "cod_cnes": "9660",
            "nom_estab": "UBS DOM PEDRO I",
            "dsc_endereco": "RUA JOSE EUGENIO DA SILVA",
            "dsc_bairro": "CONJ HAB DOM PEDRO I",
            "dsc_cidade": "São José dos Campos",
            "dsc_telefone": "1239663399",
            "dsc_estrut_fisic_ambiencia": "Desempenho acima da média",
            "dsc_adap_defic_fisic_idosos": "Desempenho acima da média",
            "dsc_equipamentos": "Desempenho mediano ou  um pouco abaixo da média",
            "dsc_medicamentos": "Desempenho acima da média",
            "co_cep": "12232680"
        },
        {
            "vlr_latitude": "-23.1335806846612",
            "vlr_longitude": "-45.7700300216662",
            "cod_munic": "354990",
            "cod_cnes": "9253",
            "nom_estab": "UBS EUGENIO DE MELO",
            "dsc_endereco": "RUA CHICO BUQUIRA",
            "dsc_bairro": "EUGENIO DE MELO",
            "dsc_cidade": "São José dos Campos",
            "dsc_telefone": "1239053022",
            "dsc_estrut_fisic_ambiencia": "Desempenho muito acima da média",
            "dsc_adap_defic_fisic_idosos": "Desempenho acima da média",
            "dsc_equipamentos": "Desempenho mediano ou  um pouco abaixo da média",
            "dsc_medicamentos": "Desempenho acima da média",
            "co_cep": "12247550"
        },
        {
            "vlr_latitude": "-23.194413185119",
            "vlr_longitude": "-45.7826900482164",
            "cod_munic": "354990",
            "cod_cnes": "9040",
            "nom_estab": "UBS NOVO HORIZONTE",
            "dsc_endereco": "RUA DOS VIDRACEIROS",
            "dsc_bairro": "PQ NOVO HORIZONTE",
            "dsc_cidade": "São José dos Campos",
            "dsc_telefone": "1239076069",
            "dsc_estrut_fisic_ambiencia": "Desempenho muito acima da média",
            "dsc_adap_defic_fisic_idosos": "Desempenho acima da média",
            "dsc_equipamentos": "Desempenho mediano ou  um pouco abaixo da média",
            "dsc_medicamentos": "Desempenho acima da média",
            "co_cep": "12225732"
        },
        {
            "vlr_latitude": "-23.1602525711053",
            "vlr_longitude": "-45.9094190597521",
            "cod_munic": "354990",
            "cod_cnes": "9083",
            "nom_estab": "UBS JARDIM TELESPARK",
            "dsc_endereco": "RUA BENEDITO PEREIRA LIMA",
            "dsc_bairro": "JARDIM TELESPARK",
            "dsc_cidade": "São José dos Campos",
            "dsc_telefone": "1239214213",
            "dsc_estrut_fisic_ambiencia": "Desempenho muito acima da média",
            "dsc_adap_defic_fisic_idosos": "Desempenho muito acima da média",
            "dsc_equipamentos": "Desempenho mediano ou  um pouco abaixo da média",
            "dsc_medicamentos": "Desempenho acima da média",
            "co_cep": "12212700"
        },
        {
            "vlr_latitude": "-23.1041300296777",
            "vlr_longitude": "-46.0027813911425",
            "cod_munic": "354990",
            "cod_cnes": "9180",
            "nom_estab": "UBS BONSUCESSO",
            "dsc_endereco": "ESTRADA DO BONSUCESSO",
            "dsc_bairro": "BONSUCESSO",
            "dsc_cidade": "São José dos Campos",
            "dsc_telefone": "1239139000",
            "dsc_estrut_fisic_ambiencia": "Desempenho mediano ou  um pouco abaixo da média",
            "dsc_adap_defic_fisic_idosos": "Desempenho mediano ou  um pouco abaixo da média",
            "dsc_equipamentos": "Desempenho mediano ou  um pouco abaixo da média",
            "dsc_medicamentos": "Desempenho acima da média",
            "co_cep": "12213992"
        },
        {
            "vlr_latitude": "-23.1813669204705",
            "vlr_longitude": "-45.8537793159472",
            "cod_munic": "354990",
            "cod_cnes": "9377",
            "nom_estab": "UBS VILA INDUSTRIAL E TATETUBA",
            "dsc_endereco": "RUA DOS PERIQUITOS",
            "dsc_bairro": "VILA TATETUBA",
            "dsc_cidade": "São José dos Campos",
            "dsc_telefone": "39996183",
            "dsc_estrut_fisic_ambiencia": "Desempenho mediano ou  um pouco abaixo da média",
            "dsc_adap_defic_fisic_idosos": "Desempenho mediano ou  um pouco abaixo da média",
            "dsc_equipamentos": "Desempenho mediano ou  um pouco abaixo da média",
            "dsc_medicamentos": "Desempenho acima da média",
            "co_cep": "12220130"
        },
        {
            "vlr_latitude": "-23.2487010955804",
            "vlr_longitude": "-45.8323645591723",
            "cod_munic": "354990",
            "cod_cnes": "9202",
            "nom_estab": "UBS PUTIM",
            "dsc_endereco": "RUA ROBERTO APARECIDO CRUZ",
            "dsc_bairro": "SANTO ONOFRE",
            "dsc_cidade": "São José dos Campos",
            "dsc_telefone": "1239441091",
            "dsc_estrut_fisic_ambiencia": "Desempenho muito acima da média",
            "dsc_adap_defic_fisic_idosos": "Desempenho acima da média",
            "dsc_equipamentos": "Desempenho mediano ou  um pouco abaixo da média",
            "dsc_medicamentos": "Desempenho acima da média",
            "co_cep": "12228077"
        },
        {
            "vlr_latitude": "-23.2108283042901",
            "vlr_longitude": "-45.8856010436998",
            "cod_munic": "354990",
            "cod_cnes": "9156",
            "nom_estab": "UBS VILA NAIR",
            "dsc_endereco": "RUA SUECIA",
            "dsc_bairro": "VILA LETONIA",
            "dsc_cidade": "São José dos Campos",
            "dsc_telefone": "1239215859",
            "dsc_estrut_fisic_ambiencia": "Desempenho muito acima da média",
            "dsc_adap_defic_fisic_idosos": "Desempenho acima da média",
            "dsc_equipamentos": "Desempenho mediano ou  um pouco abaixo da média",
            "dsc_medicamentos": "Desempenho acima da média",
            "co_cep": "12231180"
        },
        {
            "vlr_latitude": "-23.2300329208367",
            "vlr_longitude": "-45.8842706680284",
            "cod_munic": "354990",
            "cod_cnes": "9172",
            "nom_estab": "UBS JARDIM SATELITE",
            "dsc_endereco": "AVENIDA ANDROMEDA",
            "dsc_bairro": "JARDIM SATELITE",
            "dsc_cidade": "São José dos Campos",
            "dsc_telefone": "1239173496",
            "dsc_estrut_fisic_ambiencia": "Desempenho muito acima da média",
            "dsc_adap_defic_fisic_idosos": "Desempenho acima da média",
            "dsc_equipamentos": "Desempenho mediano ou  um pouco abaixo da média",
            "dsc_medicamentos": "Desempenho acima da média",
            "co_cep": "12230000"
        },
        {
            "vlr_latitude": "-23.2658135890954",
            "vlr_longitude": "-45.9078526496874",
            "cod_munic": "354990",
            "cod_cnes": "3473759",
            "nom_estab": "UBS RESIDENCIAL UNIAO",
            "dsc_endereco": "RUA MARCELO MANSO",
            "dsc_bairro": "RESIDENCIAL UNIAO",
            "dsc_cidade": "São José dos Campos",
            "dsc_telefone": "1239661866",
            "dsc_estrut_fisic_ambiencia": "Desempenho muito acima da média",
            "dsc_adap_defic_fisic_idosos": "Desempenho acima da média",
            "dsc_equipamentos": "Desempenho mediano ou  um pouco abaixo da média",
            "dsc_medicamentos": "Desempenho acima da média",
            "co_cep": "12239012"
        },
        {
            "vlr_latitude": "-23.1586647033685",
            "vlr_longitude": "-45.8985829353319",
            "cod_munic": "354990",
            "cod_cnes": "8990",
            "nom_estab": "UBS SANTANA",
            "dsc_endereco": "AVENIDA RUI BARBOSA",
            "dsc_bairro": "SANTANA",
            "dsc_cidade": "São José dos Campos",
            "dsc_telefone": "1239224035",
            "dsc_estrut_fisic_ambiencia": "Desempenho acima da média",
            "dsc_adap_defic_fisic_idosos": "Desempenho acima da média",
            "dsc_equipamentos": "Desempenho mediano ou  um pouco abaixo da média",
            "dsc_medicamentos": "Desempenho acima da média",
            "co_cep": "12212160"
        },
        {
            "vlr_latitude": "-23.2281553745263",
            "vlr_longitude": "-45.918946266173",
            "cod_munic": "354990",
            "cod_cnes": "9423",
            "nom_estab": "UBS JARDIM DAS INDUSTRIAS",
            "dsc_endereco": "RUA PIRASSUNUNGA",
            "dsc_bairro": "JD DAS INDUSTRIAS",
            "dsc_cidade": "São José dos Campos",
            "dsc_telefone": "1239319097",
            "dsc_estrut_fisic_ambiencia": "Desempenho muito acima da média",
            "dsc_adap_defic_fisic_idosos": "Desempenho acima da média",
            "dsc_equipamentos": "Desempenho mediano ou  um pouco abaixo da média",
            "dsc_medicamentos": "Desempenho acima da média",
            "co_cep": "12240160"
        },
        {
            "vlr_latitude": "-23.206665515899",
            "vlr_longitude": "-45.8891201019274",
            "cod_munic": "354990",
            "cod_cnes": "9024",
            "nom_estab": "UBS CENTRO II",
            "dsc_endereco": "AVENIDA TIVOLI",
            "dsc_bairro": "VILA BETANIA",
            "dsc_cidade": "São José dos Campos",
            "dsc_telefone": "1239419701",
            "dsc_estrut_fisic_ambiencia": "Desempenho muito acima da média",
            "dsc_adap_defic_fisic_idosos": "Desempenho mediano ou  um pouco abaixo da média",
            "dsc_equipamentos": "Desempenho mediano ou  um pouco abaixo da média",
            "dsc_medicamentos": "Desempenho acima da média",
            "co_cep": "12245230"
        },
        {
            "vlr_latitude": "-23.169382810592",
            "vlr_longitude": "-45.8424711227404",
            "cod_munic": "354990",
            "cod_cnes": "9059",
            "nom_estab": "UBS VILA TESOURO",
            "dsc_endereco": "PRACA ASSIS CHATEAUBRIAND",
            "dsc_bairro": "VILA TESOURO",
            "dsc_cidade": "São José dos Campos",
            "dsc_telefone": "1239297821",
            "dsc_estrut_fisic_ambiencia": "Desempenho muito acima da média",
            "dsc_adap_defic_fisic_idosos": "Desempenho muito acima da média",
            "dsc_equipamentos": "Desempenho mediano ou  um pouco abaixo da média",
            "dsc_medicamentos": "Desempenho acima da média",
            "co_cep": "12221450"
        }
    ]
}